DPLYR Bisection–Evaluate Many Unknown Nonlinear Equations Jointly, Solve Roots for Strictly Monotonic Functions with Single Zero-Crossing
…
head(tb_states_choices_bisec_long %>% select(-one_of('p','f_p','f_p_t_f_a')), 30)

## # A tibble: 30 x 6
##    INDI_ID  fl_A fl_alpha varname biseciter   value
##      <int> <dbl>    <dbl> <chr>   <chr>       <dbl>
##  1       1    -2      0.1 a       0              0 
##  2       1    -2      0.1 b       0            100 
##  3       1    -2      0.1 fa      0            100 
##  4       1    -2      0.1 fb      0         -12880.
##  5       1    -2      0.1 a       1              0 
##  6       1    -2      0.1 b       1             50 
##  7       1    -2      0.1 fa      1            100 
##  8       1    -2      0.1 fb      1          -5667.
##  9       1    -2      0.1 a       2              0 
## 10       1    -2      0.1 b       2             25 
## # … with 20 more rows

tail(tb_states_choices_bisec_long %>% select(-one_of('p','f_p','f_p_t_f_a')), 30)

## # A tibble: 30 x 6
##    INDI_ID  fl_A fl_alpha varname biseciter    value
##      <int> <dbl>    <dbl> <chr>   <chr>        <dbl>
##  1       4     2      0.9 fa      10         0.142  
##  2       4     2      0.9 fb      10        -0.00436
##  3       4     2      0.9 a       11        65.0    
##  4       4     2      0.9 b       11        65.0    
##  5       4     2      0.9 fa      11         0.0686 
##  6       4     2      0.9 fb      11        -0.00436
##  7       4     2      0.9 a       12        65.0    
##  8       4     2      0.9 b       12        65.0    
##  9       4     2      0.9 fa      12         0.0321 
## 10       4     2      0.9 fb      12        -0.00436
## # … with 20 more rows
…
head(tb_states_choices_bisec_wider %>% select(-one_of('p','f_p','f_p_t_f_a')), 30)

## # A tibble: 30 x 8
##    INDI_ID  fl_A fl_alpha biseciter     a      b    fa        fb
##      <int> <dbl>    <dbl> <chr>     <dbl>  <dbl> <dbl>     <dbl>
##  1       1    -2      0.1 0         0     100    100   -12880.  
##  2       1    -2      0.1 1         0      50    100    -5667.  
##  3       1    -2      0.1 2         0      25    100    -2465.  
##  4       1    -2      0.1 3         0      12.5  100    -1042.  
##  5       1    -2      0.1 4         0       6.25 100     -409.  
##  6       1    -2      0.1 5         0       3.12 100     -127.  
##  7       1    -2      0.1 6         0       1.56 100       -1.33
##  8       1    -2      0.1 7         0.781   1.56  54.7     -1.33
##  9       1    -2      0.1 8         1.17    1.56  27.5     -1.33
## 10       1    -2      0.1 9         1.37    1.56  13.2     -1.33
## # … with 20 more rows

tail(tb_states_choices_bisec_wider %>% select(-one_of('p','f_p','f_p_t_f_a')), 30)

## # A tibble: 30 x 8
##    INDI_ID  fl_A fl_alpha biseciter     a     b      fa      fb
##      <int> <dbl>    <dbl> <chr>     <dbl> <dbl>   <dbl>   <dbl>
##  1       3 0.667    0.633 6          23.4  25   5.82    -0.686 
##  2       3 0.667    0.633 7          24.2  25   2.57    -0.686 
##  3       3 0.667    0.633 8          24.6  25   0.943   -0.686 
##  4       3 0.667    0.633 9          24.8  25   0.129   -0.686 
##  5       3 0.667    0.633 10         24.8  24.9 0.129   -0.278 
##  6       3 0.667    0.633 11         24.8  24.9 0.129   -0.0748
##  7       3 0.667    0.633 12         24.8  24.9 0.0270  -0.0748
##  8       3 0.667    0.633 13         24.8  24.8 0.0270  -0.0239
##  9       3 0.667    0.633 14         24.8  24.8 0.00157 -0.0239
## 10       3 0.667    0.633 15         24.8  24.8 0.00157 -0.0112
## # … with 20 more rows
…
