Chapter 5 Linear Regression | Panel Data and Optimization with R
…
## Warning: attributes are not identical across measure variables;
## they will be dropped

# F. Results as Single Colum
df.row.results

## # A tibble: 43 x 2
##    esti.val              value               
##    <chr>                 <chr>               
##  1 (Intercept)_Estimate  44.0243196254297    
##  2 prot_Estimate         -1.4025623247106    
##  3 cal_Estimate          0.065104895750151   
##  4 sexMale_Estimate      0.120832787571818   
##  5 hgt0_Estimate         0.286525437984517   
##  6 wgt0_Estimate         0.000850481389651033
##  7 (Intercept)_Std.Error 2.75354847244082    
##  8 prot_Std.Error        0.198640060273635   
##  9 cal_Std.Error         0.00758881298880996 
## 10 sexMale_Std.Error     0.209984580636303   
## # ... with 33 more rows

# G. Results as Single Row
df.row.results

## # A tibble: 43 x 2
##    esti.val              value               
##    <chr>                 <chr>               
##  1 (Intercept)_Estimate  44.0243196254297    
##  2 prot_Estimate         -1.4025623247106    
##  3 cal_Estimate          0.065104895750151   
##  4 sexMale_Estimate      0.120832787571818   
##  5 hgt0_Estimate         0.286525437984517   
##  6 wgt0_Estimate         0.000850481389651033
##  7 (Intercept)_Std.Error 2.75354847244082    
##  8 prot_Std.Error        0.198640060273635   
##  9 cal_Std.Error         0.00758881298880996 
## 10 sexMale_Std.Error     0.209984580636303   
## # ... with 33 more rows
…
5.2.1.3 Example Guatemala OLS

df.use <- df %>% filter(S.country == 'Guatemala') %>% filter(svymthRound %in% c(12, 18, 24))
vars.z <- NULL
list.out <- ff_lr_decompose(df=df.use, vars.y, vars.x, vars.c, vars.z, vars.other.keep,
                            list.vars.tomean, list.vars.tomean.name.suffix,
                            graph=TRUE, graph.nrow=1)
options(repr.matrix.max.rows=10, repr.matrix.max.cols=50)
list.out$dfmain

## # A tibble: 1,382 x 19
##    S.country vil.id indi.id svymthRound  prot  male  wgt0  hgt0 variable value prot_mean male_mean
##    <chr>      <dbl>   <dbl>       <dbl> <dbl> <dbl> <dbl> <dbl> <chr>    <dbl>     <dbl>     <dbl>
##  1 Guatemala      3    1352          18  13.3     1 2545.  47.4 hgt       70.2      20.6     0.550
##  2 Guatemala      3    1352          24  46.3     1 2545.  47.4 hgt       75.8      20.6     0.550
##  3 Guatemala      3    1354          12   1       1 3634.  51.2 hgt       66.3      20.6     0.550
##  4 Guatemala      3    1354          18   9.8     1 3634.  51.2 hgt       69.2      20.6     0.550
##  5 Guatemala      3    1354          24  15.4     1 3634.  51.2 hgt       75.3      20.6     0.550
##  6 Guatemala      3    1356          12   8.6     1 3912.  51.9 hgt       68.1      20.6     0.550
##  7 Guatemala      3    1356          18  17.8     1 3912.  51.9 hgt       74.1      20.6     0.550
##  8 Guatemala      3    1356          24  30.5     1 3912.  51.9 hgt       77.1      20.6     0.550
##  9 Guatemala      3    1357          12   1       1 3791.  52.6 hgt       71.5      20.6     0.550
## 10 Guatemala      3    1357          18  12.7     1 3791.  52.6 hgt       77.8      20.6     0.550
## # ... with 1,372 more rows, and 7 more variables: wgt0_mean <dbl>, hgt0_mean <dbl>,
## #   svymthRound_mean <dbl>, value_mean <dbl>, value_A <dbl>, value_B <dbl>, value_C <dbl>
…
5.2.1.5 Example Cebu OLS

df.use <- df %>% filter(S.country == 'Cebu') %>% filter(svymthRound %in% c(12, 18, 24))
vars.z <- NULL
list.out <- ff_lr_decompose(df=df.use, vars.y, vars.x, vars.c, vars.z, vars.other.keep,
                            list.vars.tomean, list.vars.tomean.name.suffix,
                            graph=TRUE, graph.nrow=1)
options(repr.matrix.max.rows=10, repr.matrix.max.cols=50)
list.out$dfmain

## # A tibble: 7,262 x 19
##    S.country vil.id indi.id svymthRound  prot  male  wgt0  hgt0 variable value prot_mean male_mean
##    <chr>      <dbl>   <dbl>       <dbl> <dbl> <dbl> <dbl> <dbl> <chr>    <dbl>     <dbl>     <dbl>
##  1 Cebu           1       1          12  11.3     1 2044.  44.2 hgt       70.8      17.0     0.526
##  2 Cebu           1       2          12   5.9     0 2840.  49.7 hgt       72.2      17.0     0.526
##  3 Cebu           1       2          18   0.5     0 2840.  49.7 hgt       76.5      17.0     0.526
##  4 Cebu           1       2          24  14.1     0 2840.  49.7 hgt       79.2      17.0     0.526
##  5 Cebu           1       3          12  21.4     0 3446.  51.7 hgt       68        17.0     0.526
##  6 Cebu           1       3          18  23.6     0 3446.  51.7 hgt       71.6      17.0     0.526
##  7 Cebu           1       3          24  20.6     0 3446.  51.7 hgt       76.7      17.0     0.526
##  8 Cebu           1       4          12   0.7     0 3091.  50.2 hgt       69.1      17.0     0.526
##  9 Cebu           1       4          18   7.2     0 3091.  50.2 hgt       74.3      17.0     0.526
## 10 Cebu           1       4          24  10.3     0 3091.  50.2 hgt       78.1      17.0     0.526
## # ... with 7,252 more rows, and 7 more variables: wgt0_mean <dbl>, hgt0_mean <dbl>,
## #   svymthRound_mean <dbl>, value_mean <dbl>, value_A <dbl>, value_B <dbl>, value_C <dbl>
…
# Decomposition Step 1: gather
df.decompose_step1 <- df.use %>%
                        filter(svymthRound %in% c(12, 18, 24)) %>%
                        select(one_of(c(vars.other.keep, vars.xc, vars.y))) %>%
                        drop_na() %>%
                        gather(variable, value, -one_of(c(vars.other.keep, vars.xc)))
options(repr.matrix.max.rows=20, repr.matrix.max.cols=20)
dim(df.decompose_step1)

## [1] 1382   10

df.decompose_step1

## # A tibble: 1,382 x 10
##    S.country vil.id indi.id svymthRound  prot  male  wgt0  hgt0 variable value
##    <chr>      <dbl>   <dbl>       <dbl> <dbl> <dbl> <dbl> <dbl> <chr>    <dbl>
##  1 Guatemala      3    1352          18  13.3     1 2545.  47.4 hgt       70.2
##  2 Guatemala      3    1352          24  46.3     1 2545.  47.4 hgt       75.8
##  3 Guatemala      3    1354          12   1       1 3634.  51.2 hgt       66.3
##  4 Guatemala      3    1354          18   9.8     1 3634.  51.2 hgt       69.2
##  5 Guatemala      3    1354          24  15.4     1 3634.  51.2 hgt       75.3
##  6 Guatemala      3    1356          12   8.6     1 3912.  51.9 hgt       68.1
##  7 Guatemala      3    1356          18  17.8     1 3912.  51.9 hgt       74.1
##  8 Guatemala      3    1356          24  30.5     1 3912.  51.9 hgt       77.1
##  9 Guatemala      3    1357          12   1       1 3791.  52.6 hgt       71.5
## 10 Guatemala      3    1357          18  12.7     1 3791.  52.6 hgt       77.8
## # ... with 1,372 more rows
…
# Decomposition Step 2: mutate_at(vars, funs(mean = mean(.)))
# the xc averaging could have taken place earlier, no difference in mean across variables
df.decompose_step2 <- df.decompose_step1 %>%
                        group_by(variable) %>%
                        mutate_at(vars(c(vars.xc, 'value')), funs(mean = mean(.))) %>%
                        ungroup()

options(repr.matrix.max.rows=20, repr.matrix.max.cols=20)
dim(df.decompose_step2)

## [1] 1382   16

df.decompose_step2

## # A tibble: 1,382 x 16
##    S.country vil.id indi.id svymthRound  prot  male  wgt0  hgt0 variable value prot_mean male_mean
##    <chr>      <dbl>   <dbl>       <dbl> <dbl> <dbl> <dbl> <dbl> <chr>    <dbl>     <dbl>     <dbl>
##  1 Guatemala      3    1352          18  13.3     1 2545.  47.4 hgt       70.2      20.6     0.550
##  2 Guatemala      3    1352          24  46.3     1 2545.  47.4 hgt       75.8      20.6     0.550
##  3 Guatemala      3    1354          12   1       1 3634.  51.2 hgt       66.3      20.6     0.550
##  4 Guatemala      3    1354          18   9.8     1 3634.  51.2 hgt       69.2      20.6     0.550
##  5 Guatemala      3    1354          24  15.4     1 3634.  51.2 hgt       75.3      20.6     0.550
##  6 Guatemala      3    1356          12   8.6     1 3912.  51.9 hgt       68.1      20.6     0.550
##  7 Guatemala      3    1356          18  17.8     1 3912.  51.9 hgt       74.1      20.6     0.550
##  8 Guatemala      3    1356          24  30.5     1 3912.  51.9 hgt       77.1      20.6     0.550
##  9 Guatemala      3    1357          12   1       1 3791.  52.6 hgt       71.5      20.6     0.550
## 10 Guatemala      3    1357          18  12.7     1 3791.  52.6 hgt       77.8      20.6     0.550
## # ... with 1,372 more rows, and 4 more variables: wgt0_mean <dbl>, hgt0_mean <dbl>,
## #   svymthRound_mean <dbl>, value_mean <dbl>
…
}
options(repr.matrix.max.rows=10, repr.matrix.max.cols=20)
dim(df.decompose_step3)

## [1] 1382   19

df.decompose_step3

## # A tibble: 1,382 x 19
##    S.country vil.id indi.id svymthRound  prot  male  wgt0  hgt0 variable value prot_mean male_mean
##    <chr>      <dbl>   <dbl>       <dbl> <dbl> <dbl> <dbl> <dbl> <chr>    <dbl>     <dbl>     <dbl>
##  1 Guatemala      3    1352          18  13.3     1 2545.  47.4 hgt       70.2      20.6     0.550
##  2 Guatemala      3    1352          24  46.3     1 2545.  47.4 hgt       75.8      20.6     0.550
##  3 Guatemala      3    1354          12   1       1 3634.  51.2 hgt       66.3      20.6     0.550
##  4 Guatemala      3    1354          18   9.8     1 3634.  51.2 hgt       69.2      20.6     0.550
##  5 Guatemala      3    1354          24  15.4     1 3634.  51.2 hgt       75.3      20.6     0.550
##  6 Guatemala      3    1356          12   8.6     1 3912.  51.9 hgt       68.1      20.6     0.550
##  7 Guatemala      3    1356          18  17.8     1 3912.  51.9 hgt       74.1      20.6     0.550
##  8 Guatemala      3    1356          24  30.5     1 3912.  51.9 hgt       77.1      20.6     0.550
##  9 Guatemala      3    1357          12   1       1 3791.  52.6 hgt       71.5      20.6     0.550
## 10 Guatemala      3    1357          18  12.7     1 3791.  52.6 hgt       77.8      20.6     0.550
## # ... with 1,372 more rows, and 7 more variables: wgt0_mean <dbl>, hgt0_mean <dbl>,
## #   svymthRound_mean <dbl>, value_mean <dbl>, value_mh0me2m <dbl>, value_mh0mep2m <dbl>,
## #   value_mh0mepm2m <dbl>
…
5.2.1.7.7 Graphical Results

Graphically, difficult to pick up exact differences in variance, a 50 percent reduction in variance visually does not look like 50 percent. Intuitively, we are kind of seeing standard deviation, not variance on the graph if we think abou the x-scale.

df.decompose_step3 %>%
    select(variable, contains('value'), -value_mean)

## # A tibble: 1,382 x 5
##    variable value value_mh0me2m value_mh0mep2m value_mh0mepm2m
##    <chr>    <dbl>         <dbl>          <dbl>           <dbl>
##  1 hgt       70.2          73.2           71.2            71.7
##  2 hgt       75.8          78.8           85.8            79.4
##  3 hgt       66.3          63.6           58.3            65.6
##  4 hgt       69.2          66.5           63.6            64.1
##  5 hgt       75.3          72.6           71.2            64.9
##  6 hgt       68.1          64.3           61.1            68.4
##  7 hgt       74.1          70.3           69.6            70.0
##  8 hgt       77.1          73.3           76.0            69.7
##  9 hgt       71.5          66.8           61.5            68.8
## 10 hgt       77.8          73.1           71.0            71.5
## # ... with 1,372 more rows
…
