Chapter 7 Optimization | Panel Data and Optimization with R
…
head(tb_states_choices_bisec_long %>% select(-one_of('p','f_p','f_p_t_f_a')), 30)

## # A tibble: 30 x 6
##    INDI_ID  fl_A fl_alpha varname biseciter   value
##      <int> <dbl>    <dbl> <chr>   <chr>       <dbl>
##  1       1    -2      0.1 a       0              0 
##  2       1    -2      0.1 b       0            100 
##  3       1    -2      0.1 fa      0            100 
##  4       1    -2      0.1 fb      0         -15058.
##  5       1    -2      0.1 a       1              0 
##  6       1    -2      0.1 b       1             50 
##  7       1    -2      0.1 fa      1            100 
##  8       1    -2      0.1 fb      1          -6660.
##  9       1    -2      0.1 a       2              0 
## 10       1    -2      0.1 b       2             25 
## # ... with 20 more rows

tail(tb_states_choices_bisec_long %>% select(-one_of('p','f_p','f_p_t_f_a')), 30)

## # A tibble: 30 x 6
##    INDI_ID  fl_A fl_alpha varname biseciter   value
##      <int> <dbl>    <dbl> <chr>   <chr>       <dbl>
##  1       4     2      0.9 fa      11         0.0765
##  2       4     2      0.9 fb      11        -0.0108
##  3       4     2      0.9 a       12        54.1   
##  4       4     2      0.9 b       12        54.1   
##  5       4     2      0.9 fa      12         0.0328
##  6       4     2      0.9 fb      12        -0.0108
##  7       4     2      0.9 a       13        54.1   
##  8       4     2      0.9 b       13        54.1   
##  9       4     2      0.9 fa      13         0.0110
## 10       4     2      0.9 fb      13        -0.0108
## # ... with 20 more rows
…
print(tb_states_choices_bisec_wider %>% select(-one_of('p','f_p','f_p_t_f_a')))

## # A tibble: 76 x 8
##    INDI_ID  fl_A fl_alpha biseciter     a      b    fa        fb
##      <int> <dbl>    <dbl> <chr>     <dbl>  <dbl> <dbl>     <dbl>
##  1       1    -2      0.1 0         0     100    100   -15058.  
##  2       1    -2      0.1 1         0      50    100    -6660.  
##  3       1    -2      0.1 2         0      25    100    -2918.  
##  4       1    -2      0.1 3         0      12.5  100    -1248.  
##  5       1    -2      0.1 4         0       6.25 100     -503.  
##  6       1    -2      0.1 5         0       3.12 100     -170.  
##  7       1    -2      0.1 6         0       1.56 100      -21.1 
##  8       1    -2      0.1 7         0.781   1.56  45.7    -21.1 
##  9       1    -2      0.1 8         1.17    1.56  13.2    -21.1 
## 10       1    -2      0.1 9         1.17    1.37  13.2     -3.76
## # ... with 66 more rows

print(tb_states_choices_bisec_wider %>% select(-one_of('p','f_p','f_p_t_f_a')))

## # A tibble: 76 x 8
##    INDI_ID  fl_A fl_alpha biseciter     a      b    fa        fb
##      <int> <dbl>    <dbl> <chr>     <dbl>  <dbl> <dbl>     <dbl>
##  1       1    -2      0.1 0         0     100    100   -15058.  
##  2       1    -2      0.1 1         0      50    100    -6660.  
##  3       1    -2      0.1 2         0      25    100    -2918.  
##  4       1    -2      0.1 3         0      12.5  100    -1248.  
##  5       1    -2      0.1 4         0       6.25 100     -503.  
##  6       1    -2      0.1 5         0       3.12 100     -170.  
##  7       1    -2      0.1 6         0       1.56 100      -21.1 
##  8       1    -2      0.1 7         0.781   1.56  45.7    -21.1 
##  9       1    -2      0.1 8         1.17    1.56  13.2    -21.1 
## 10       1    -2      0.1 9         1.17    1.37  13.2     -3.76
## # ... with 66 more rows
…
