Chapter 2 Summarize Data | Panel Data and Optimization with R
…
# Show Results
options(repr.matrix.max.rows=30, repr.matrix.max.cols=20)
vars.arrange <- c('S.country','indi.id','svymthRound')
vars.groups.within.indi <- c('m12t24', 'm8t24', 'm12', 'm6', 'm3')
as.tibble(df.groups.to.average %>%
          group_by(!!!syms(vars.arrange)) %>%
          arrange(!!!syms(vars.arrange)) %>%
          select(!!!syms(vars.arrange), !!!syms(vars.groups.within.indi)))

## # A tibble: 23,603 x 8
##    S.country indi.id svymthRound m12t24 m8t24   m12    m6    m3
##    <chr>       <dbl>       <dbl>  <dbl> <dbl> <dbl> <dbl> <dbl>
##  1 Cebu            1           0      0     0     1     1     1
##  2 Cebu            1           2      0     0     1     1     1
##  3 Cebu            1           4      0     0     1     1     2
##  4 Cebu            1           6      0     0     1     1     2
##  5 Cebu            1           8      0     1     1     2     3
##  6 Cebu            1          10      0     1     1     2     4
##  7 Cebu            1          12      1     1     1     2     4
##  8 Cebu            1          14      1     1     2     3     5
##  9 Cebu            1          16      1     1     2     3     6
## 10 Cebu            1          18      1     1     2     3     6
## # ... with 23,593 more rows
…
With the within-group averages created, we can generate averages for all variables within these groups.

vars.not.groups2avg <- c('prot', 'cal')
vars.indi.grp <- c('S.country', 'indi.id')
vars.groups.within.indi <- c('m12t24', 'm8t24', 'm12', 'm6', 'm3')

df.groups.to.average.select <- df.groups.to.average %>%
                        select(one_of(c(vars.indi.grp,
                                        vars.not.groups2avg,
                                        vars.groups.within.indi)))
df.avg.allvars.wide <- f.by.groups.summ.wide(df.groups.to.average.select,
                                             vars.not.groups2avg,
                                             vars.indi.grp, display=TRUE)

## # A tibble: 36,414 x 6
## # Groups:   S.country, indi.id, variable [10,115]
##    S.country indi.id variable value   prot   cal
##    <chr>       <dbl> <chr>    <dbl>  <dbl> <dbl>
##  1 Cebu            1 m12          1   5.36 132. 
##  2 Cebu            1 m12          2 NaN    NaN  
##  3 Cebu            1 m12t24       0   4.37  97.1
##  4 Cebu            1 m12t24       1  11.3  343. 
##  5 Cebu            1 m3           1   0.65   9.1
##  6 Cebu            1 m3           2   3.65  95.5
##  7 Cebu            1 m3           3   2.6   85.3
##  8 Cebu            1 m3           4  13.2  315. 
##  9 Cebu            1 m3           5 NaN    NaN  
## 10 Cebu            1 m3           6 NaN    NaN  
## # ... with 36,404 more rows
## # A tibble: 2,023 x 38
##    S.country indi.id cal_m12_c1 cal_m12_c2 cal_m12t24_c0 cal_m12t24_c1 cal_m3_c1 cal_m3_c2 cal_m3_c3 cal_m3_c4 cal_m3_c5 cal_m3_c6 cal_m3_c7 cal_m3_c8
##    <chr>       <dbl>      <dbl>      <dbl>         <dbl>         <dbl>     <dbl>     <dbl>     <dbl>     <dbl>     <dbl>     <dbl>     <dbl>     <dbl>
##  1 Cebu            1      132.        NaN           97.1          343.      9.1       95.5      85.3     315.       NaN       NaN       NaN       NaN 
##  2 Cebu            2       90.7       256.          81.5          240.     83.4       12.3     155.      144.       228       153.      305       348.
##  3 Cebu            3       96.8       659.          31.6          634.      0.5       28.8      57       281.       459.      550.      612       891.
##  4 Cebu            4       27.5       372.          24.6          325.      4.5       26.0      39.4      46.0      221.      271       581.      443.
##  5 Cebu            5      101.       1081.          79.2          960.     14.1      144.       71.3     161.       453.     1345.     1178.     1082 
##  6 Cebu            6      185.        522.         162.           493.     23.8      185.      169.      356.       653.      506.      417.      523 
##  7 Cebu            7      157.        571.         146.           514.      8.3      138.      408.      200.       391.      637.      688.      570.
##  8 Cebu            8      472.        845.         379.           871.    159.       423       418.      861.       691.      898.      637.      972.
##  9 Cebu            9       32.3       415.          16.6          374.      5.05      10.4      15.1      90.0      142.      204.      753.      594.
## 10 Cebu           10       67.2       395.          68.6          347.      9.55      26.4     165.      117.       297.      303       385.      542.
## # ... with 2,013 more rows, and 24 more variables: cal_m6_c1 <dbl>, cal_m6_c2 <dbl>, cal_m6_c3 <dbl>, cal_m6_c4 <dbl>, cal_m8t24_c0 <dbl>,
## #   cal_m8t24_c1 <dbl>, prot_m12_c1 <dbl>, prot_m12_c2 <dbl>, prot_m12t24_c0 <dbl>, prot_m12t24_c1 <dbl>, prot_m3_c1 <dbl>, prot_m3_c2 <dbl>,
## #   prot_m3_c3 <dbl>, prot_m3_c4 <dbl>, prot_m3_c5 <dbl>, prot_m3_c6 <dbl>, prot_m3_c7 <dbl>, prot_m3_c8 <dbl>, prot_m6_c1 <dbl>, prot_m6_c2 <dbl>,
## #   prot_m6_c3 <dbl>, prot_m6_c4 <dbl>, prot_m8t24_c0 <dbl>, prot_m8t24_c1 <dbl>
…
## [1] 2023   38

names(df.avg.allvars.wide)

##  [1] "S.country"      "indi.id"        "cal_m12_c1"     "cal_m12_c2"     "cal_m12t24_c0"  "cal_m12t24_c1"  "cal_m3_c1"      "cal_m3_c2"     
##  [9] "cal_m3_c3"      "cal_m3_c4"      "cal_m3_c5"      "cal_m3_c6"      "cal_m3_c7"      "cal_m3_c8"      "cal_m6_c1"      "cal_m6_c2"     
## [17] "cal_m6_c3"      "cal_m6_c4"      "cal_m8t24_c0"   "cal_m8t24_c1"   "prot_m12_c1"    "prot_m12_c2"    "prot_m12t24_c0" "prot_m12t24_c1"
## [25] "prot_m3_c1"     "prot_m3_c2"     "prot_m3_c3"     "prot_m3_c4"     "prot_m3_c5"     "prot_m3_c6"     "prot_m3_c7"     "prot_m3_c8"    
## [33] "prot_m6_c1"     "prot_m6_c2"     "prot_m6_c3"     "prot_m6_c4"     "prot_m8t24_c0"  "prot_m8t24_c1"

options(repr.matrix.max.rows=30, repr.matrix.max.cols=12)
df.avg.allvars.wide

## # A tibble: 2,023 x 38
##    S.country indi.id cal_m12_c1 cal_m12_c2 cal_m12t24_c0 cal_m12t24_c1 cal_m3_c1 cal_m3_c2 cal_m3_c3 cal_m3_c4 cal_m3_c5 cal_m3_c6 cal_m3_c7 cal_m3_c8
##    <chr>       <dbl>      <dbl>      <dbl>         <dbl>         <dbl>     <dbl>     <dbl>     <dbl>     <dbl>     <dbl>     <dbl>     <dbl>     <dbl>
##  1 Cebu            1      132.        NaN           97.1          343.      9.1       95.5      85.3     315.       NaN       NaN       NaN       NaN 
##  2 Cebu            2       90.7       256.          81.5          240.     83.4       12.3     155.      144.       228       153.      305       348.
##  3 Cebu            3       96.8       659.          31.6          634.      0.5       28.8      57       281.       459.      550.      612       891.
##  4 Cebu            4       27.5       372.          24.6          325.      4.5       26.0      39.4      46.0      221.      271       581.      443.
##  5 Cebu            5      101.       1081.          79.2          960.     14.1      144.       71.3     161.       453.     1345.     1178.     1082 
##  6 Cebu            6      185.        522.         162.           493.     23.8      185.      169.      356.       653.      506.      417.      523 
##  7 Cebu            7      157.        571.         146.           514.      8.3      138.      408.      200.       391.      637.      688.      570.
##  8 Cebu            8      472.        845.         379.           871.    159.       423       418.      861.       691.      898.      637.      972.
##  9 Cebu            9       32.3       415.          16.6          374.      5.05      10.4      15.1      90.0      142.      204.      753.      594.
## 10 Cebu           10       67.2       395.          68.6          347.      9.55      26.4     165.      117.       297.      303       385.      542.
## # ... with 2,013 more rows, and 24 more variables: cal_m6_c1 <dbl>, cal_m6_c2 <dbl>, cal_m6_c3 <dbl>, cal_m6_c4 <dbl>, cal_m8t24_c0 <dbl>,
## #   cal_m8t24_c1 <dbl>, prot_m12_c1 <dbl>, prot_m12_c2 <dbl>, prot_m12t24_c0 <dbl>, prot_m12t24_c1 <dbl>, prot_m3_c1 <dbl>, prot_m3_c2 <dbl>,
## #   prot_m3_c3 <dbl>, prot_m3_c4 <dbl>, prot_m3_c5 <dbl>, prot_m3_c6 <dbl>, prot_m3_c7 <dbl>, prot_m3_c8 <dbl>, prot_m6_c1 <dbl>, prot_m6_c2 <dbl>,
## #   prot_m6_c3 <dbl>, prot_m6_c4 <dbl>, prot_m8t24_c0 <dbl>, prot_m8t24_c1 <dbl>
…
